[
  {
    "quote": "Close your eyes. Focus on making yourself feel excited, powerful. Imagine yourself destroying goals with ease.",
    "author": "Andrew Tate"
  },
  {
    "quote": "Find a person who is as successful as you’d like to be, ask them what to do, do it and work hard.",
    "author": "Andrew Tate"
  },
  {
    "quote": "Your mind must be stronger than your feelings.",
    "author": "Andrew Tate"
  },
  {
    "quote": "Absolutely every single one of my actions is intentional. Divine purpose. If your day is full of mindless action, you act without thought.",
    "author": "Andrew Tate"
  },
  {
    "quote": "Success is always stressful.",
    "author": "Andrew Tate"
  },
  {
    "quote": "Freedom will only come when you no longer trade your time for money.",
    "author": "Andrew Tate"
  },
  {
    "quote": "Cost is the enemy of the poor man, so the poor try to save money. Time is the enemy of the rich man, so the rich try to save time.",
    "author": "Andrew Tate"
  },
  {
    "quote": "You must put in the effort to get the life you want.",
    "author": "Andrew Tate"
  },
  {
    "quote": "You are exactly where you deserve to be. Change who you are and you will change how you live.",
    "author": "Andrew Tate"
  },
  {
    "quote": "Arrogance breeds complacency and complacency breeds failure.",
    "author": "Andrew Tate"
  },
  {
    "quote": "Do the impossible and you’ll never doubt yourself ever again.",
    "author": "Andrew Tate"
  },
  {
    "quote": "The internet is the new battleground of earth, the wild west, the place of truth and opportunity.",
    "author": "Andrew Tate"
  },
  {
    "quote": "Arrogance is the cause of most first-world poverty.",
    "author": "Andrew Tate"
  },
  {
    "quote": "Today you can act as an amateur or you can be a professional. Decide what you will do right now.",
    "author": "Andrew Tate"
  },
  {
    "quote": "Emotional control isn’t a lack of emotion; it’s a necessary function of maturity.",
    "author": "Andrew Tate"
  },
  {
    "quote": "High standards protect you from low-quality experiences.",
    "author": "Andrew Tate"
  },
  {
    "quote": "Aspire to be a superhero. Not a normal person with a bigger house and nicer car.",
    "author": "Andrew Tate"
  },
  {
    "quote": "Intellect is nothing without energy. Ideas are nothing without energy. High energy people win.",
    "author": "Andrew Tate"
  },
  {
    "quote": "The man who goes to the gym every single day regardless of how he feels will always beat the man who goes to the gym when he feels like going to the gym.",
    "author": "Andrew Tate"
  },
  {
    "quote": "There is no joy without pain.",
    "author": "Andrew Tate"
  },
  {
    "quote": "The amount of stress you can tolerate while remaining effective is directly correlated to the level of success you will enjoy.",
    "author": "Andrew Tate"
  },
  {
    "quote": "Reject weakness in any form.",
    "author": "Andrew Tate"
  },
  {
    "quote": "You can become rich, you can become strong, you can take care of your loved ones and enjoy the fact it will be very difficult.",
    "author": "Andrew Tate"
  },
  {
    "quote": "No exceptional person ever lived like an average person.",
    "author": "Andrew Tate"
  },
  {
    "quote": "If failure makes you stronger, you can never lose.",
    "author": "Andrew Tate"
  },
  {
    "quote": "The harder you work, the more important you become.",
    "author": "Andrew Tate"
  },
  {
    "quote": "Show me a man with one friend and I’ll see a man who’s honest.",
    "author": "Andrew Tate"
  },
  {
    "quote": "Don’t listen to the advice of people who are living lives you don’t want to live.",
    "author": "Andrew Tate"
  },
  {
    "quote": "You are never going to have any of the things you want if you do not get them yourself. Nobody cares about you enough to do it for you.",
    "author": "Andrew Tate"
  },
  {
    "quote": "Focus on what’s best for yourself.",
    "author": "Andrew Tate"
  },
  {
    "quote": "My biggest victories in life were when I was sad.",
    "author": "Andrew Tate"
  },
  {
    "quote": "I always win because I genuinely can’t take losing.",
    "author": "Andrew Tate"
  },
  {
    "quote": "The faster you work, the more work you get done.",
    "author": "Andrew Tate"
  },
  {
    "quote": "Your only option to level up is to begin talking to winners.",
    "author": "Andrew Tate"
  },
  {
    "quote": "There is no light without dark. There is no joy without pain.",
    "author": "Andrew Tate"
  },
  {
    "quote": "Searching for my favorite feeling has built me an exceptional life.",
    "author": "Andrew Tate"
  },
  {
    "quote": "Stress tolerance is the best indicator of a person’s likelihood of success.",
    "author": "Andrew Tate"
  },
  {
    "quote": "Adversity builds men. It is your duty to challenge yourself and craft your own world.",
    "author": "Andrew Tate"
  },
  {
    "quote": "You could be worth 100 million dollars, and go into the war room, and go into a specific room, and the fact that you’re worth 100 million dollars will no longer matter. If you’re sending a girl flowers, and she’s going on a girls trip, then you will get shut down.",
    "author": "Andrew Tate"
  },
  {
    "quote": "They want to get rich, but they have no plan to get rich! And a hope and a plan are two different things.",
    "author": "Andrew Tate"
  },
  {
    "quote": "Money is always moving. If you get in the right place at the right time, then you’re going to get some!",
    "author": "Andrew Tate"
  },
  {
    "quote": "Money will fix all your problems. If money was so bad and did not bring happiness all the billionaires would be giving it away. Wake up.",
    "author": "Andrew Tate"
  },
  {
    "quote": "If you truly wanted money, you wouldn’t be able to sleep until you had it.",
    "author": "Andrew Tate"
  },
  {
    "quote": "You have to look at your business ideas and your plans, and find a way to remove your need for money to attempt the plan.",
    "author": "Andrew Tate"
  },
  {
    "quote": "If you’re surrounded by people who have a plan to get rich, and you provide value to them, sooner or later you’re going to begin to make money.",
    "author": "Andrew Tate"
  },
  {
    "quote": "I know more about making money than anyone else in the world. Most people’s views on money are outdated. If you want to get rich in today’s attention-based economy, then you need to learn modern methods of wealth creation.",
    "author": "Andrew Tate"
  },
  {
    "quote": "A business is money in, and nothing else. It’s not money out, it’s not your account, it’s not your logo, it’s not your website, a business is money into a bank.",
    "author": "Andrew Tate"
  },
  {
    "quote": "You will never get rich without a plan.",
    "author": "Andrew Tate"
  },
  {
    "quote": "Your mindset is the single most important factor in determining your success or failure.",
    "author": "Andrew Tate"
  },
  {
    "quote": "Success is not about luck, it’s about having the right mindset.",
    "author": "Andrew Tate"
  },
  {
    "quote": "If you want to be successful, you have to think like a winner.",
    "author": "Andrew Tate"
  },
  {
    "quote": "The only thing holding you back from achieving your goals is your own mindset.",
    "author": "Andrew Tate"
  },
  {
    "quote": "You are viewing yourself as a short man! Walk up and be THE man!.",
    "author": "Andrew Tate"
  },
  {
    "quote": "A strong mindset is the key to achieving anything you want in life.",
    "author": "Andrew Tate"
  },
  {
    "quote": "The most successful people in the world have a mindset of abundance, not scarcity.",
    "author": "Andrew Tate"
  },
  {
    "quote": "The difference between those who succeed and those who fail is often their mindset.",
    "author": "Andrew Tate"
  },
  {
    "quote": "Your mindset is like a muscle, the more you exercise it, the stronger it becomes.",
    "author": "Andrew Tate"
  },
  {
    "quote": "If you want to change your life, you first have to change your mindset.",
    "author": "Andrew Tate"
  },
  {
    "quote": "I don’t believe in motivation. I believe in discipline! I am a disciplined person!",
    "author": "Andrew Tate"
  },
  {
    "quote": "I don’t need to be motivated because I’m disciplined. If I allocate X amount of time to do something, I’m going to do it.",
    "author": "Andrew Tate"
  },
  {
    "quote": "You’re going to have to work when you don’t feel like working. That’s how it’s going to have to be, or you’re never going to be anything.",
    "author": "Andrew Tate"
  },
  {
    "quote": "The temporary satisfaction of quitting is outweighed by the eternal suffering of being a nobody.",
    "author": "Andrew Tate"
  },
  {
    "quote": "People who train every day do not want to train every day. They are not motivated to train every day. They have something else, they are disciplined.",
    "author": "Andrew Tate"
  },
  {
    "quote": "Success is the result of discipline, dedication, and sacrifice.",
    "author": "Andrew Tate"
  },
  {
    "quote": "Discipline is not a punishment. It’s a practice of self-control and self-mastery.",
    "author": "Andrew Tate"
  },
  {
    "quote": "The difference between successful people and unsuccessful people is the willingness to do what others won’t.",
    "author": "Andrew Tate"
  },
  {
    "quote": "Discipline is the key to success. Absolutely is. If you cannot force yourself to do something that you do not want to do, how are you ever gonna put yourself through the suffering required for greatness?",
    "author": "Andrew Tate"
  },
  {
    "quote": "Discipline is the foundation of freedom.",
    "author": "Andrew Tate"
  },
  {
    "quote": "A man without a vision for his future always returns to his past.",
    "author": "Andrew Tate"
  },
  {
    "quote": "If I’m not doing something which is either extremely difficult or extremely stressful, I’m in a perpetual state of crippling boredom.",
    "author": "Andrew Tate"
  },
  {
    "quote": "The immovable object beats the unstoppable force. The immovable object requires less energy. Efficiency always wins.",
    "author": "Andrew Tate"
  },
  {
    "quote": "Life isn’t about how hard you can hit. It’s about how hard you can hit while being hit. It’s about how much you can give as you take.",
    "author": "Andrew Tate"
  },
  {
    "quote": "Value is linked to difficulty. If you want something that is valuable, you need something which is difficult to obtain.",
    "author": "Andrew Tate"
  },
  {
    "quote": "I could never stop fighting even if I lost 100 fights because I’m not built to live a normal existence.",
    "author": "Andrew Tate"
  },
  {
    "quote": "A good plan today is better than a perfect plan tomorrow. You’ve gotta do something and you’ve gotta do something fast. You just sitting around talking about it and hoping for things to get better isn’t going to do anything.",
    "author": "Andrew Tate"
  },
  {
    "quote": "Most people see other people with things they want and don’t do the second half. They don’t try to work out how they got that thing.",
    "author": "Andrew Tate"
  },
  {
    "quote": "Men should be extremely complicated, a result of the perplexity of empire building and constant war. A man who doesn’t live this reality, isn’t a man.",
    "author": "Andrew Tate"
  },
  {
    "quote": "I’m very happy that my life has been difficult because it’s impossible to become a capable man without struggling, facing serious adversities, and overcoming insurmountable odds.",
    "author": "Andrew Tate"
  },
  {
    "quote": "Every day that you make the wrong choice, more of your potential is wasted.",
    "author": "Andrew Tate"
  },
  {
    "quote": "If you want people to care about who you are, become familiar with pain.",
    "author": "Andrew Tate"
  },
  {
    "quote": "You’ve never pushed yourself because you believe the goal can never be achieved.",
    "author": "Andrew Tate"
  },
  {
    "quote": "Have you taken advantage of the few things you actually control? Or are you still hoping to just get lucky?",
    "author": "Andrew Tate"
  },
  {
    "quote": "My unmatched perspicacity coupled with sheer indefatigability makes me a feared opponent in any realm of human endeavor.",
    "author": "Andrew Tate"
  },
  {
    "quote": "You need to understand that in this world there’s a whole bunch of people doing amazing things that you are not doing. And that needs to piss you off.",
    "author": "Andrew Tate"
  },
  {
    "quote": "Nobody gives a f**k about you as much you’re gonna have to give a f**k about yourself.",
    "author": "Andrew Tate"
  },
  {
    "quote": "Think of all of the amazing things you could have accomplished by now if you weren’t brutally lazy. Imagine all of the time you wasted, every opportunity you let pass by, all the good advice you arrogantly ignored.",
    "author": "Andrew Tate"
  },
  {
    "quote": "Today you can act as an amateur or a professional. Decide what you will do right now.",
    "author": "Andrew Tate"
  },
  {
    "quote": "Your life can be like a movie. The mundane, the boring, the average, your life doesn’t need to be this way. But every good movie has some sort of risk, and the heroes of the story are willing to take them. Are you?",
    "author": "Andrew Tate"
  },
  {
    "quote": "If you truly wanted money, you wouldn’t be able to sleep until you f**king had it.",
    "author": "Andrew Tate"
  },
  {
    "quote": "If you can find a place where money is moving and stand in the way, then the money is vulnerable.",
    "author": "Andrew Tate"
  },
  {
    "quote": "If you don’t know anybody who is rich, you’re not useful to someone who is.",
    "author": "Andrew Tate"
  },
  {
    "quote": "The best and fastest way to obtain wealth does not guarantee it will feel easy or fast.",
    "author": "Andrew Tate"
  },
  {
    "quote": "Pain and suffering for breakfast.",
    "author": "Andrew Tate"
  },
  {
    "quote": "You can fight the realities of the world and lose. Or you can accept them and become successful. You decide.",
    "author": "Andrew Tate"
  },
  {
    "quote": "You have unlimited work to do today. Every second you waste is an admittance that you don’t actually want it badly enough.",
    "author": "Andrew Tate"
  },
  {
    "quote": "Poor people like to believe the rich are mysteriously unhappy to feel better about being poor.",
    "author": "Andrew Tate"
  },
  {
    "quote": "The amount of work you find to do is directly correlated to how much you care.",
    "author": "Andrew Tate"
  },
  {
    "quote": "Feeling depressed is real, but I refuse to believe in depression as a clinical diagnosis. I refuse to believe in anything that takes away my power.",
    "author": "Andrew Tate"
  },
  {
    "quote": "Understand that as people become poor, the money hasn’t vanished. Someone else is becoming rich.",
    "author": "Andrew Tate"
  },
  {
    "quote": "You can become rich, you can become strong, you can take care of your loved ones and enjoy the fact that it will be very difficult.",
    "author": "Andrew Tate"
  },
  {
    "quote": "An animal isn’t happy in the zoo. It survives and is comfortable. This is why most of you or unhappy.",
    "author": "Andrew Tate"
  },
  {
    "quote": "If you’re known as crazy. Your life is going to go one of two ways. Absolute success, or the absolute bottom. But you can rest assured you won’t end up average like the rest.",
    "author": "Andrew Tate"
  },
  {
    "quote": "You are exactly where you deserve to be. Poor? Then money isn’t your problem, your brain is the problem. You are the reason for your own poverty.",
    "author": "Andrew Tate"
  },
  {
    "quote": "Imagine broke people saying money isn’t happiness and thinking: How would they know?",
    "author": "Andrew Tate"
  },
  {
    "quote": "All of you watching this have a handful of aces. You could have been in a car crash and ended up in a wheelchair, but you’re still here on your own two feet. Right where you need to be.",
    "author": "Andrew Tate"
  },
  {
    "quote": "One of the only things that you can control in this world is your state of mind.",
    "author": "Andrew Tate"
  },
  {
    "quote": "Make your last name mean something. Only a coward doesn’t care about their bloodline.",
    "author": "Andrew Tate"
  },
  {
    "quote": "You don’t get to go through life only doing the things that you feel like doing.",
    "author": "Andrew Tate"
  },
  {
    "quote": "Do the impossible and you’ll never doubt yourself again.",
    "author": "Andrew Tate"
  },
  {
    "quote": "Your golden years are when you retire at 65. Life is to be lived young. Your golden years are remembering how much of a badass you were.",
    "author": "Andrew Tate"
  },
  {
    "quote": "Every action you take is molding who you are as a person.",
    "author": "Andrew Tate"
  },
  {
    "quote": "All of life’s important lessons come from being broke. The best thing you can hope for as a headstart for a child are: good parents and no money.",
    "author": "Andrew Tate"
  },
  {
    "quote": "Reality is self-constructed. In my world, I am in absolute control every second",
    "author": "Andrew Tate"
  },
  {
    "quote": "Do not listen to the weak on how to become strong. You’re only as good as the influences around you.",
    "author": "Andrew Tate"
  },
  {
    "quote": "Do what you’re supposed to do regardless of how you feel. How can you compete with the people that do that if you’re not willing to?",
    "author": "Andrew Tate"
  },
  {
    "quote": "Aspire to be a man who can do whatever he wants, whenever he wants.",
    "author": "Andrew Tate"
  },
  {
    "quote": "Money is always moving. If you get in the right place at the right time, then you’re going to get some.",
    "author": "Andrew Tate"
  },
  {
    "quote": "The future belongs to those who prepare for it today. Everyone has a dream, but no one has a plan. And nothing good is gonna happen by accident.",
    "author": "Andrew Tate"
  },
  {
    "quote": "Most of you have been down so long that getting up hasn’t crossed your mind.",
    "author": "Andrew Tate"
  },
  {
    "quote": "How you view the world absolutely shapes how you react to the world. You have to believe that you can achieve anything.",
    "author": "Andrew Tate"
  },
  {
    "quote": "It’s impossible to exist somewhere you’re not comfortable.",
    "author": "Andrew Tate"
  },
  {
    "quote": "Maybe you’re broke. Maybe you’re out of shape. Maybe you just want a different life altogether. This ‘depression’ you feel is the key to everything you want to change.",
    "author": "Andrew Tate"
  },
  {
    "quote": "The secret to having friends is to be a friend. The secret to being interesting is to be interested. The secret to being loved is to love. It’s giving that will give you what you want in life.",
    "author": "Andrew Tate"
  },
  {
    "quote": "The top of the mountain is the bottom of the next.",
    "author": "Andrew Tate"
  },
  {
    "quote": "I don’t need to be motivated because I’m a disciplined person. If I allocate X amount of time to do something, I’m going to do it.",
    "author": "Andrew Tate"
  },
  {
    "quote": "If you can deal with stress all day, you’re going to be successful.",
    "author": "Andrew Tate"
  },
  {
    "quote": "Lazy people do a little work and feel like they should be winning. Winners work as hard as possible and still worry if they’re being lazy.",
    "author": "Andrew Tate"
  },
  {
    "quote": "Every action you take is molding who you are as a person. Every time that you sleep in. Every time you are undisciplined, you are training yourself that it’s okay. A downward spiral towards mediocrity.",
    "author": "Andrew Tate"
  },
  {
    "quote": "For 12 years I trained 5 hours per day, six days per week, and I was motivated to train probably 25% of the time. The rest of the time I went because I am disciplined.",
    "author": "Andrew Tate"
  },
  {
    "quote": "Sloppy in one area of your life results in sloppiness in all areas of your life.",
    "author": "Andrew Tate"
  },
  {
    "quote": "Stress tolerance is the best indicator of success. Most people either panic under stress or disassociate. The elite can stay focused on the task and turn stress into power.",
    "author": "Andrew Tate"
  },
  {
    "quote": "Are you good enough on your worst day to defeat your opponents on their best day?",
    "author": "Andrew Tate"
  },
  {
    "quote": "Sadness is a warning. You feel it for a reason. Your mind is telling you that you need to work harder.",
    "author": "Andrew Tate"
  },
  {
    "quote": "Men are not designed to be comfortable. They want to achieve. They want to feel pain and suffering. They want to conquer something.",
    "author": "Andrew Tate"
  },
  {
    "quote": "You are organized, fast, and systematized. You stop doing things that you know are a waste of time. You stop acting based on emotional whims. Imagine that version of yourself. Imagine what that person accomplishes in a year.",
    "author": "Andrew Tate"
  },
  {
    "quote": "The person who goes to the gym every day regardless of how they feel will always beat the person who goes to the gym when they feel like going to the gym.",
    "author": "Andrew Tate"
  },
  {
    "quote": "The average man doesn’t try very hard. So if you try very hard, it’s impossible to be average.",
    "author": "Andrew Tate"
  },
  {
    "quote": "Missing one gym session won’t hurt you. But the attitude that allows you to miss one session without guilt, is going to hurt you.",
    "author": "Andrew Tate"
  },
  {
    "quote": "90% of success is going through stress, pain, torment, and bulls**t.",
    "author": "Andrew Tate"
  },
  {
    "quote": "Compare yourself to who you were yesterday, not to who someone else is today.",
    "author": "Jordan Peterson"
  },
  {
    "quote": "If you aren’t moving forward in your life there is some idea, mode of action, or habit you’re so in love with you won’t let go of it.",
    "author": "Jordan Peterson"
  },
  {
    "quote": "The better ambitions have to do with the development of character and ability, rather than status and power. Status you can lose. You carry character with you wherever you go, and it allows you to prevail against adversity.",
    "author": "Jordan Peterson"
  },
  {
    "quote": "You’re not everything you could be, and you know it.",
    "author": "Jordan Peterson"
  },
  {
    "quote": "Self-love is the only antidote to the chaos of existence. And if you don’t love and care for yourself and your own needs, you will cause unnecessary suffering both for yourself and others.",
    "author": "Jordan Peterson"
  },
  {
    "quote": "Perhaps you are overvaluing what you don’t have and undervaluing what you do.",
    "author": "Jordan Peterson"
  },
  {
    "quote": "You must determine where you are going in your life, because you cannot get there unless you move in that direction. Random wandering will not move you forward. It will instead disappoint and frustrate you and make you anxious and unhappy and hard to get along with (and then resentful, and then vengeful, and then worse).",
    "author": "Jordan Peterson"
  },
  {
    "quote": "Pursue what is meaningful (not what is expedient).",
    "author": "Jordan Peterson"
  },
  {
    "quote": "You should be better than you are, but it’s not because you’re worse than other people. It’s because you’re not everything you should be.",
    "author": "Jordan Peterson"
  },
  {
    "quote": "To learn is to die voluntarily and be born again, in great ways and small.",
    "author": "Jordan Peterson"
  },
  {
    "quote": "Don’t be a slave to stupid rules.",
    "author": "Jordan Peterson"
  },
  {
    "quote": "When you are visited by chaos and swallowed up; when nature curses you or someone you love with illness; or when tyranny rends asunder something of value that you have built, it is salutary to know the rest of the story. All of that misfortune is only the bitter half of the tale of existence, without taking note of the heroic element of redemption or the nobility of the human spirit requiring a certain responsibility to shoulder. We ignore that addition to the story at our peril, because life is so difficult that losing sight of the heroic part of existence could cost us everything.",
    "author": "Jordan Peterson"
  },
  {
    "quote": "Don’t underestimate the power of vision and direction. These are irresistible forces, able to transform what might appear to be unconquerable obstacles into traversable pathways and expanding opportunities. Strengthen the individual. Start with yourself. Take care with yourself. Define who you are. Refine your personality. Choose your destination and articulate your Being. As the great nineteenth-century German philosopher Friedrich Nietzsche so brilliantly noted, ‘He whose life has a why can bear almost any how.’",
    "author": "Jordan Peterson"
  },
  {
    "quote": "Face the demands of life voluntarily. Respond to a challenge, instead of bracing for catastrophe.",
    "author": "Jordan Peterson"
  },
  {
    "quote": "You can do an awful lot by writing down what happened to you and thinking it through.",
    "author": "Jordan Peterson"
  },
  {
    "quote": "If you don’t stand your ground, then all that happens is people push you backwards. And they will push you, and push you, and push you, until you fall off a cliff.",
    "author": "Jordan Peterson"
  },
  {
    "quote": "If you fulfill your obligations every day you don’t need to worry about the future.",
    "author": "Jordan Peterson"
  },
  {
    "quote": "Truth, virtue, and courage are not necessarily enough, but they are our best bet.",
    "author": "Jordan Peterson"
  },
  {
    "quote": "So, listen, to yourself and to those with whom you are speaking. Your wisdom then consists not of the knowledge you already have, but the continual search for knowledge, which is the highest form of wisdom.",
    "author": "Jordan Peterson"
  },
  {
    "quote": "You need to consider the future And think, ‘What might my life look like if I were caring for myself properly?’",
    "author": "Jordan Peterson"
  },
  {
    "quote": "To stand up straight with your shoulders back is to accept the terrible responsibility of life, with eyes wide open. It means deciding to voluntarily transform the chaos of potential into the realities of habitable order. It means adopting the burden of self-conscious vulnerability, and accepting the end of the unconscious paradise of childhood, where finitude and mortality are only dimly comprehended. It means willingly undertaking the sacrifices necessary to generate a productive and meaningful reality (it means acting to please God, in the ancient language).",
    "author": "Jordan Peterson"
  },
  {
    "quote": "The successful among us delay gratification and bargain with the future.",
    "author": "Jordan Peterson"
  },
  {
    "quote": "You cannot be protected from the things that frighten you and hurt you, but if you identify with the part of your being that is responsible for transformation, then you are always the equal, or more than the equal of the things that frighten you.",
    "author": "Jordan Peterson"
  },
  {
    "quote": "It took untold generations to get you where you are. A little gratitude might be in order. If you’re going to insist on bending the world to your way, you better have your reasons.",
    "author": "Jordan Peterson"
  },
  {
    "quote": "Can you imagine yourself in 10 years if instead of avoiding the things you know you should do, you actually did them every single day—that’s powerful.",
    "author": "Jordan Peterson"
  },
  {
    "quote": "The light that you discover in your life is proportionate to the amount of the darkness you are willing to forthrightly confront.",
    "author": "Jordan Peterson"
  },
  {
    "quote": "The way that you make people resilient is by voluntarily exposing them to things that they are afraid of and that makes them uncomfortable.",
    "author": "Jordan Peterson"
  },
  {
    "quote": "It is much better to make friends with what you do not know than with what you do know, as there is an infinite supply of the former but a finite stock of the latter.",
    "author": "Jordan Peterson"
  },
  {
    "quote": "When you have something to say, silence is a lie.",
    "author": "Jordan Peterson"
  },
  {
    "quote": "Once someone has spent enough time cultivating bad habits and biding their time, they are much diminished. Much of what they could have been has dissipated.",
    "author": "Jordan Peterson"
  },
  {
    "quote": "And if you think tough men are dangerous, wait until you see what weak men are capable of.",
    "author": "Jordan Peterson"
  },
  {
    "quote": "Adopt responsibility for your own well-being, try to put your family together, try to serve your community, try to seek for eternal truth. That’s the sort of thing that can ground you in your life, enough so that you can withstand the difficulty of life.",
    "author": "Jordan Peterson"
  },
  {
    "quote": "The secret to your existence is right in front of you. And it manifests itself as all those things you know you should do but you’re avoiding.",
    "author": "Jordan Peterson"
  },
  {
    "quote": "Truth is the handmaiden of love.",
    "author": "Jordan Peterson"
  },
  {
    "quote": "If your life is not what it could be, try telling the truth. If you cling desperately to an ideology or wallow in nihilism, try telling the truth. If you feel weak and rejected, and desperate, and confused, try telling the truth. In Paradise, everyone speaks the truth. That is what makes it Paradise. Tell the truth. Or, at least, don’t lie.",
    "author": "Jordan Peterson"
  },
  {
    "quote": "It’s better to do something badly than to not do it at all.",
    "author": "Jordan Peterson"
  },
  {
    "quote": "Always place your becoming above your current being.",
    "author": "Jordan Peterson"
  },
  {
    "quote": "It’s in responsibility that most people find the meaning that sustains them through life. It’s not in happiness. It’s not in impulsive pleasure.",
    "author": "Jordan Peterson"
  },
  {
    "quote": "You should be careful, therefore, to live your life fully, and marriage and children and grandchildren, and all the trouble and heartbreak that accompanies all of that, is much of what life has to offer. Miss it at your great peril.",
    "author": "Jordan Peterson"
  },
  {
    "quote": "The truth is something that burns, it burns off deadwood and people don’t like having their deadwood burnt off often because they’re 95 percent deadwood.",
    "author": "Jordan Peterson"
  },
  {
    "quote": "If you can’t understand why someone is doing something, look at the consequences of their actions, whatever they might be, and then infer the motivations from their consequences.",
    "author": "Jordan Peterson"
  },
  {
    "quote": "When you have something to say, silence is a lie.",
    "author": "Jordan Peterson"
  },
  {
    "quote": "I believe that the good that people do, small though it may appear, has more to do with the good that manifests broadly in the world than people think, and I believe the same about evil. We are each more responsible for the state of the world than we believe, or would feel comfortable believing.",
    "author": "Jordan Peterson"
  },
  {
    "quote": "Love is the desire to see unnecessary suffering ameliorated.",
    "author": "Jordan Peterson"
  },
  {
    "quote": "You can only find out what you actually believe (rather than what you think you believe) by watching how you act. You simply don’t know what you believe, before that. You are too complex to understand yourself.",
    "author": "Jordan Peterson"
  },
  {
    "quote": "You should take care of, help, and be good to yourself the same way you would take care of, help, and be good to someone you loved and valued.",
    "author": "Jordan Peterson"
  },
  {
    "quote": "Work as hard as you possibly can on at least one thing and see what happens.",
    "author": "Jordan Peterson"
  },
  {
    "quote": "If you’re going to be successful you need to be smart, conscientious, and tough.",
    "author": "Jordan Peterson"
  },
  {
    "quote": "The purpose of life is finding the largest burden that you can bear and bearing it.",
    "author": "Jordan Peterson"
  },
  {
    "quote": "Notice that opportunity lurks where responsibility has been abdicated.",
    "author": "Jordan Peterson"
  },
  {
    "quote": "Ideologies are substitutes for true knowledge, and ideologues are always dangerous when they come to power, because a simple-minded I-know-it-all approach is no match for the complexity of existence.",
    "author": "Jordan Peterson"
  },
  {
    "quote": "To suffer terribly and to know yourself as the cause: that is Hell.",
    "author": "Jordan Peterson"
  },
  {
    "quote": "If you are not willing to be a fool, you can’t become a master.",
    "author": "Jordan Peterson"
  },
  {
    "quote": "In order to be able to think, you have to risk being offensive.",
    "author": "Jordan Peterson"
  },
  {
    "quote": "If you cannot bring peace to your own household, how dare you try and rule a city?",
    "author": "Jordan Peterson"
  }
]
